<?xml version="1.0" encoding="UTF-8" standalone="no"?><svg xmlns="http://www.w3.org/2000/svg" xmlns:xlink="http://www.w3.org/1999/xlink" contentScriptType="application/ecmascript" contentStyleType="text/css" height="485px" preserveAspectRatio="none" style="width:710px;height:485px;" version="1.1" viewBox="0 0 710 485" width="710px" zoomAndPan="magnify"><defs><filter height="300%" id="f15qn4s48ol81z" width="300%" x="-1" y="-1"><feGaussianBlur result="blurOut" stdDeviation="2.0"/><feColorMatrix in="blurOut" result="blurOut2" type="matrix" values="0 0 0 0 0 0 0 0 0 0 0 0 0 0 0 0 0 0 .4 0"/><feOffset dx="4.0" dy="4.0" in="blurOut2" result="blurOut3"/><feBlend in="SourceGraphic" in2="blurOut3" mode="normal"/></filter></defs><g><!--class Handle--><rect fill="#FEFECE" filter="url(#f15qn4s48ol81z)" height="203.4609" id="Handle" style="stroke: #A80036; stroke-width: 1.5;" width="332" x="6" y="14.5"/><ellipse cx="141.25" cy="30.5" fill="#ADD1B2" rx="11" ry="11" style="stroke: #A80036; stroke-width: 1.0;"/><path d="M144.2231,36.1431 Q143.6421,36.4419 143.0029,36.5913 Q142.3638,36.7407 141.6582,36.7407 Q139.1514,36.7407 137.8315,35.0889 Q136.5117,33.437 136.5117,30.3159 Q136.5117,27.1865 137.8315,25.5347 Q139.1514,23.8828 141.6582,23.8828 Q142.3638,23.8828 143.0112,24.0322 Q143.6587,24.1816 144.2231,24.4805 L144.2231,27.2031 Q143.5923,26.6221 142.9988,26.3523 Q142.4053,26.0825 141.7744,26.0825 Q140.4297,26.0825 139.7449,27.1492 Q139.0601,28.2158 139.0601,30.3159 Q139.0601,32.4077 139.7449,33.4744 Q140.4297,34.541 141.7744,34.541 Q142.4053,34.541 142.9988,34.2712 Q143.5923,34.0015 144.2231,33.4204 Z "/><text fill="#000000" font-family="sans-serif" font-size="12" lengthAdjust="spacingAndGlyphs" textLength="41" x="161.75" y="35.0352">Handle</text><rect fill="#FFFFFF" height="16.1328" style="stroke: #000000; stroke-width: 1.0; stroke-dasharray: 2.0,2.0;" width="10" x="331" y="11.5"/><text fill="#000000" font-family="sans-serif" font-size="12" font-style="italic" lengthAdjust="spacingAndGlyphs" textLength="8" x="332" y="24.1016">T</text><line style="stroke: #A80036; stroke-width: 1.5;" x1="7" x2="337" y1="46.5" y2="46.5"/><rect fill="none" height="6" style="stroke: #C82930; stroke-width: 1.0;" width="6" x="14" y="55.4775"/><text fill="#000000" font-family="sans-serif" font-size="11" lengthAdjust="spacingAndGlyphs" textLength="28" x="26" y="61.1348">T* _p</text><line style="stroke: #A80036; stroke-width: 1.5;" x1="7" x2="337" y1="67.4551" y2="67.4551"/><ellipse cx="17" cy="79.4326" fill="#84BE84" rx="3" ry="3" style="stroke: #038048; stroke-width: 1.0;"/><text fill="#000000" font-family="sans-serif" font-size="11" lengthAdjust="spacingAndGlyphs" textLength="306" x="26" y="82.0898">friend bool operator == (const Handle&amp;, const Handle&amp;);</text><ellipse cx="17" cy="92.3877" fill="#84BE84" rx="3" ry="3" style="stroke: #038048; stroke-width: 1.0;"/><text fill="#000000" font-family="sans-serif" font-size="11" lengthAdjust="spacingAndGlyphs" textLength="60" x="26" y="95.0449">Handle (T*)</text><ellipse cx="17" cy="105.3428" fill="#84BE84" rx="3" ry="3" style="stroke: #038048; stroke-width: 1.0;"/><text fill="#000000" font-family="sans-serif" font-size="11" lengthAdjust="spacingAndGlyphs" textLength="126" x="26" y="108">Handle (const Handle&amp;)</text><ellipse cx="17" cy="118.2979" fill="#84BE84" rx="3" ry="3" style="stroke: #038048; stroke-width: 1.0;"/><text fill="#000000" font-family="sans-serif" font-size="11" lengthAdjust="spacingAndGlyphs" textLength="101" x="26" y="120.9551">Handle (Handle&amp;&amp;)</text><ellipse cx="17" cy="131.2529" fill="#84BE84" rx="3" ry="3" style="stroke: #038048; stroke-width: 1.0;"/><text fill="#000000" font-family="sans-serif" font-size="11" lengthAdjust="spacingAndGlyphs" textLength="196" x="26" y="133.9102">Handle&amp; operator = (const Handle&amp;)</text><ellipse cx="17" cy="144.208" fill="#84BE84" rx="3" ry="3" style="stroke: #038048; stroke-width: 1.0;"/><text fill="#000000" font-family="sans-serif" font-size="11" lengthAdjust="spacingAndGlyphs" textLength="171" x="26" y="146.8652">Handle&amp; operator = (Handle&amp;&amp;)</text><ellipse cx="17" cy="157.1631" fill="#84BE84" rx="3" ry="3" style="stroke: #038048; stroke-width: 1.0;"/><text fill="#000000" font-family="sans-serif" font-size="11" lengthAdjust="spacingAndGlyphs" textLength="55" x="26" y="159.8203">~Handle ()</text><ellipse cx="17" cy="170.1182" fill="#84BE84" rx="3" ry="3" style="stroke: #038048; stroke-width: 1.0;"/><text fill="#000000" font-family="sans-serif" font-size="11" lengthAdjust="spacingAndGlyphs" textLength="117" x="26" y="172.7754">T&amp; operator * () const</text><ellipse cx="17" cy="183.0732" fill="#84BE84" rx="3" ry="3" style="stroke: #038048; stroke-width: 1.0;"/><text fill="#000000" font-family="sans-serif" font-size="11" lengthAdjust="spacingAndGlyphs" textLength="124" x="26" y="185.7305">T* operator -&gt; () const</text><ellipse cx="17" cy="196.0283" fill="#84BE84" rx="3" ry="3" style="stroke: #038048; stroke-width: 1.0;"/><text fill="#000000" font-family="sans-serif" font-size="11" lengthAdjust="spacingAndGlyphs" textLength="76" x="26" y="198.6855">T* get () const</text><ellipse cx="17" cy="208.9834" fill="#84BE84" rx="3" ry="3" style="stroke: #038048; stroke-width: 1.0;"/><text fill="#000000" font-family="sans-serif" font-size="11" lengthAdjust="spacingAndGlyphs" textLength="109" x="26" y="211.6406">void swap (Handle&amp;)</text><!--class AbstractShape--><rect fill="#FEFECE" filter="url(#f15qn4s48ol81z)" height="216.416" id="AbstractShape" style="stroke: #A80036; stroke-width: 1.5;" width="326" x="373" y="8"/><ellipse cx="490.25" cy="24" fill="#ADD1B2" rx="11" ry="11" style="stroke: #A80036; stroke-width: 1.0;"/><path d="M493.2231,29.6431 Q492.6421,29.9419 492.0029,30.0913 Q491.3638,30.2407 490.6582,30.2407 Q488.1514,30.2407 486.8315,28.5889 Q485.5117,26.937 485.5117,23.8159 Q485.5117,20.6865 486.8315,19.0347 Q488.1514,17.3828 490.6582,17.3828 Q491.3638,17.3828 492.0112,17.5322 Q492.6587,17.6816 493.2231,17.9805 L493.2231,20.7031 Q492.5923,20.1221 491.9988,19.8523 Q491.4053,19.5825 490.7744,19.5825 Q489.4297,19.5825 488.7449,20.6492 Q488.0601,21.7158 488.0601,23.8159 Q488.0601,25.9077 488.7449,26.9744 Q489.4297,28.041 490.7744,28.041 Q491.4053,28.041 491.9988,27.7712 Q492.5923,27.5015 493.2231,26.9204 Z "/><text fill="#000000" font-family="sans-serif" font-size="12" lengthAdjust="spacingAndGlyphs" textLength="83" x="510.75" y="28.5352">AbstractShape</text><line style="stroke: #A80036; stroke-width: 1.5;" x1="374" x2="698" y1="40" y2="40"/><rect fill="none" height="6" style="stroke: #C82930; stroke-width: 1.0;" width="6" x="381" y="48.9775"/><text fill="#000000" font-family="sans-serif" font-size="11" lengthAdjust="spacingAndGlyphs" textLength="24" x="393" y="54.6348">int x</text><rect fill="none" height="6" style="stroke: #C82930; stroke-width: 1.0;" width="6" x="381" y="61.9326"/><text fill="#000000" font-family="sans-serif" font-size="11" lengthAdjust="spacingAndGlyphs" textLength="23" x="393" y="67.5898">int y</text><line style="stroke: #A80036; stroke-width: 1.5;" x1="374" x2="698" y1="73.9102" y2="73.9102"/><ellipse cx="384" cy="85.8877" fill="#84BE84" rx="3" ry="3" style="stroke: #038048; stroke-width: 1.0;"/><text fill="#000000" font-family="sans-serif" font-size="11" lengthAdjust="spacingAndGlyphs" textLength="293" x="393" y="88.5449">friend bool operator == (const Shape&amp;, const Shape&amp;)</text><ellipse cx="384" cy="98.8428" fill="#84BE84" rx="3" ry="3" style="stroke: #038048; stroke-width: 1.0;"/><text fill="#000000" font-family="sans-serif" font-size="11" lengthAdjust="spacingAndGlyphs" textLength="259" x="393" y="101.5">friend istream&amp; operator &gt;&gt; (istream&amp;, Shape&amp;)</text><ellipse cx="384" cy="111.7979" fill="#84BE84" rx="3" ry="3" style="stroke: #038048; stroke-width: 1.0;"/><text fill="#000000" font-family="sans-serif" font-size="11" lengthAdjust="spacingAndGlyphs" textLength="300" x="393" y="114.4551">friend ostream&amp; operator &lt;&lt; (ostream&amp;, const Shape&amp;)</text><polygon fill="#FFFF44" points="384,119.7529,388,123.7529,384,127.7529,380,123.7529" style="stroke: #B38D22; stroke-width: 1.0;"/><text fill="#000000" font-family="sans-serif" font-size="11" font-style="italic" lengthAdjust="spacingAndGlyphs" textLength="216" x="393" y="127.4102">virtual bool equals (const Shape&amp;) const</text><polygon fill="#FFFF44" points="384,132.708,388,136.708,384,140.708,380,136.708" style="stroke: #B38D22; stroke-width: 1.0;"/><text fill="#000000" font-family="sans-serif" font-size="11" font-style="italic" lengthAdjust="spacingAndGlyphs" textLength="171" x="393" y="140.3652">virtual istream&amp; read (istream&amp;)</text><polygon fill="#FFFF44" points="384,145.6631,388,149.6631,384,153.6631,380,149.6631" style="stroke: #B38D22; stroke-width: 1.0;"/><text fill="#000000" font-family="sans-serif" font-size="11" font-style="italic" lengthAdjust="spacingAndGlyphs" textLength="214" x="393" y="153.3203">virtual ostream&amp; write const (ostream&amp;)</text><ellipse cx="384" cy="163.6182" fill="#84BE84" rx="3" ry="3" style="stroke: #038048; stroke-width: 1.0;"/><text fill="#000000" font-family="sans-serif" font-size="11" lengthAdjust="spacingAndGlyphs" textLength="142" x="393" y="166.2754">AbstractShape (int x, int y)</text><ellipse cx="384" cy="176.5732" fill="#84BE84" rx="3" ry="3" style="stroke: #038048; stroke-width: 1.0;"/><text fill="#000000" font-family="sans-serif" font-size="11" lengthAdjust="spacingAndGlyphs" textLength="133" x="393" y="179.2305">virtual ~AbstractShape ()</text><ellipse cx="384" cy="189.5283" fill="#84BE84" rx="3" ry="3" style="stroke: #038048; stroke-width: 1.0;"/><text fill="#000000" font-family="sans-serif" font-size="11" font-style="italic" lengthAdjust="spacingAndGlyphs" textLength="144" x="393" y="192.1855">virtual double area () const</text><ellipse cx="384" cy="202.4834" fill="#84BE84" rx="3" ry="3" style="stroke: #038048; stroke-width: 1.0;"/><text fill="#000000" font-family="sans-serif" font-size="11" font-style="italic" lengthAdjust="spacingAndGlyphs" textLength="196" x="393" y="205.1406">virtual AbstractShape* clone () const</text><ellipse cx="384" cy="215.4385" fill="#84BE84" rx="3" ry="3" style="stroke: #038048; stroke-width: 1.0;"/><text fill="#000000" font-family="sans-serif" font-size="11" lengthAdjust="spacingAndGlyphs" textLength="119" x="393" y="218.0957">void move (int x, int y)</text><!--class Circle--><rect fill="#FEFECE" filter="url(#f15qn4s48ol81z)" height="190.5059" id="Circle" style="stroke: #A80036; stroke-width: 1.5;" width="325" x="373.5" y="284"/><ellipse cx="515.75" cy="300" fill="#ADD1B2" rx="11" ry="11" style="stroke: #A80036; stroke-width: 1.0;"/><path d="M518.7231,305.6431 Q518.1421,305.9419 517.5029,306.0913 Q516.8638,306.2407 516.1582,306.2407 Q513.6514,306.2407 512.3315,304.5889 Q511.0117,302.937 511.0117,299.8159 Q511.0117,296.6865 512.3315,295.0347 Q513.6514,293.3828 516.1582,293.3828 Q516.8638,293.3828 517.5112,293.5322 Q518.1587,293.6816 518.7231,293.9805 L518.7231,296.7031 Q518.0923,296.1221 517.4988,295.8523 Q516.9053,295.5825 516.2744,295.5825 Q514.9297,295.5825 514.2449,296.6492 Q513.5601,297.7158 513.5601,299.8159 Q513.5601,301.9077 514.2449,302.9744 Q514.9297,304.041 516.2744,304.041 Q516.9053,304.041 517.4988,303.7712 Q518.0923,303.5015 518.7231,302.9204 Z "/><text fill="#000000" font-family="sans-serif" font-size="12" lengthAdjust="spacingAndGlyphs" textLength="32" x="536.25" y="304.5352">Circle</text><line style="stroke: #A80036; stroke-width: 1.5;" x1="374.5" x2="697.5" y1="316" y2="316"/><rect fill="none" height="6" style="stroke: #C82930; stroke-width: 1.0;" width="6" x="381.5" y="324.9775"/><text fill="#000000" font-family="sans-serif" font-size="11" lengthAdjust="spacingAndGlyphs" textLength="22" x="393.5" y="330.6348">int r</text><line style="stroke: #A80036; stroke-width: 1.5;" x1="374.5" x2="697.5" y1="336.9551" y2="336.9551"/><ellipse cx="384.5" cy="348.9326" fill="#84BE84" rx="3" ry="3" style="stroke: #038048; stroke-width: 1.0;"/><text fill="#000000" font-family="sans-serif" font-size="11" lengthAdjust="spacingAndGlyphs" textLength="291" x="393.5" y="351.5898">friend bool operator == (const Circle&amp;, const Circle&amp;)</text><ellipse cx="384.5" cy="361.8877" fill="#84BE84" rx="3" ry="3" style="stroke: #038048; stroke-width: 1.0;"/><text fill="#000000" font-family="sans-serif" font-size="11" lengthAdjust="spacingAndGlyphs" textLength="258" x="393.5" y="364.5449">friend istream&amp; operator &gt;&gt; (istream&amp;, Circle&amp;)</text><ellipse cx="384.5" cy="374.8428" fill="#84BE84" rx="3" ry="3" style="stroke: #038048; stroke-width: 1.0;"/><text fill="#000000" font-family="sans-serif" font-size="11" lengthAdjust="spacingAndGlyphs" textLength="299" x="393.5" y="377.5">friend ostream&amp; operator &lt;&lt; (ostream&amp;, const Circle&amp;)</text><polygon fill="#FFFF44" points="384.5,382.7979,388.5,386.7979,384.5,390.7979,380.5,386.7979" style="stroke: #B38D22; stroke-width: 1.0;"/><text fill="#000000" font-family="sans-serif" font-size="11" lengthAdjust="spacingAndGlyphs" textLength="227" x="393.5" y="390.4551">bool equals (const Shape&amp;) const override</text><polygon fill="#FFFF44" points="384.5,395.7529,388.5,399.7529,384.5,403.7529,380.5,399.7529" style="stroke: #B38D22; stroke-width: 1.0;"/><text fill="#000000" font-family="sans-serif" font-size="11" lengthAdjust="spacingAndGlyphs" textLength="182" x="393.5" y="403.4102">istream&amp; read (istream&amp;) override</text><polygon fill="#FFFF44" points="384.5,408.708,388.5,412.708,384.5,416.708,380.5,412.708" style="stroke: #B38D22; stroke-width: 1.0;"/><text fill="#000000" font-family="sans-serif" font-size="11" lengthAdjust="spacingAndGlyphs" textLength="225" x="393.5" y="416.3652">ostream&amp; write (ostream&amp;) const override</text><ellipse cx="384.5" cy="426.6631" fill="#84BE84" rx="3" ry="3" style="stroke: #038048; stroke-width: 1.0;"/><text fill="#000000" font-family="sans-serif" font-size="11" lengthAdjust="spacingAndGlyphs" textLength="123" x="393.5" y="429.3203">Circle (int x, int y, int r)</text><ellipse cx="384.5" cy="439.6182" fill="#84BE84" rx="3" ry="3" style="stroke: #038048; stroke-width: 1.0;"/><text fill="#000000" font-family="sans-serif" font-size="11" lengthAdjust="spacingAndGlyphs" textLength="155" x="393.5" y="442.2754">double area () const override</text><ellipse cx="384.5" cy="452.5732" fill="#84BE84" rx="3" ry="3" style="stroke: #038048; stroke-width: 1.0;"/><text fill="#000000" font-family="sans-serif" font-size="11" lengthAdjust="spacingAndGlyphs" textLength="160" x="393.5" y="455.2305">Circle* clone () const override</text><ellipse cx="384.5" cy="465.5283" fill="#84BE84" rx="3" ry="3" style="stroke: #038048; stroke-width: 1.0;"/><text fill="#000000" font-family="sans-serif" font-size="11" lengthAdjust="spacingAndGlyphs" textLength="95" x="393.5" y="468.1855">int radius () const</text><!--link Handle to AbstractShape--><path d="M351.0554,116 C358.3062,116 365.5571,116 372.8079,116 " fill="none" id="Handle-AbstractShape" style="stroke: #A80036; stroke-width: 1.0;"/><polygon fill="#A80036" points="338.0039,116,344.0039,120,350.0039,116,344.0039,112,338.0039,116" style="stroke: #A80036; stroke-width: 1.0;"/><!--link AbstractShape to Circle--><path d="M536,244.3763 C536,257.6634 536,270.9964 536,283.8341 " fill="none" id="AbstractShape-Circle" style="stroke: #A80036; stroke-width: 1.0;"/><polygon fill="none" points="529.0001,244.3163,536,224.3162,543.0001,244.3162,529.0001,244.3163" style="stroke: #A80036; stroke-width: 1.0;"/><!--
@startuml
Handle        *-   AbstractShape
AbstractShape <|- - Circle

class Handle<T> {
    - T* _p
    + friend bool operator == (const Handle&, const Handle&);
    + Handle (T*)
    + Handle (const Handle&)
    + Handle (Handle&&)
    + Handle& operator = (const Handle&)
    + Handle& operator = (Handle&&)
    + ~Handle ()
    + T& operator * () const
    + T* operator -> () const
    + T* get () const
    + void swap (Handle&)
    }

class AbstractShape {
    - int x
    - int y
    + friend bool operator == (const Shape&, const Shape&)
    + friend istream& operator >> (istream&, Shape&)
    + friend ostream& operator << (ostream&, const Shape&)
    # {abstract} virtual bool equals (const Shape&) const
    # {abstract} virtual istream& read (istream&)
    # {abstract} virtual ostream& write const (ostream&)
    + AbstractShape (int x, int y)
    + virtual ~AbstractShape ()
    + {abstract} virtual double area () const
    + {abstract} virtual AbstractShape* clone () const
    + void move (int x, int y)
    }

class Circle {
    - int r
    + friend bool operator == (const Circle&, const Circle&)
    + friend istream& operator >> (istream&, Circle&)
    + friend ostream& operator << (ostream&, const Circle&)
    # bool equals (const Shape&) const override
    # istream& read (istream&) override
    # ostream& write (ostream&) const override
    + Circle (int x, int y, int r)
    + double area () const override
    + Circle* clone () const override
    + int radius () const
    }

@enduml

PlantUML version 1.2018.12(Sun Oct 21 05:15:15 CDT 2018)
(GPL source distribution)
Java Runtime: Java(TM) SE Runtime Environment
JVM: Java HotSpot(TM) 64-Bit Server VM
Java Version: 10.0.1+10
Operating System: Mac OS X
OS Version: 10.13.6
Default Encoding: UTF-8
Language: en
Country: US
--></g></svg>